Merging Comparative Manifesto Project and ParlGov cabinet composition data at the party-level – Hauke Licht
…
nrow(pty_links)
 
## [1] 310
 
# is distinct?
is_unique(pty_links)
 
## [1] TRUE
 
# any PGV ID matches to multiple CMP parties?
pty_links %>% 
    group_by(pgv_party_id) %>% 
    filter(n_distinct(cmp_party) > 1)
 
## # A tibble: 27 x 4
## # Groups:   pgv_party_id [11]
##    ptf_party_id country_iso3c cmp_party pgv_party_id
##           <int> <chr>             <int>        <int>
##  1          698 BEL               21912          969
##  2          554 BEL               21422          454
##  3          698 BEL               21423          969
##  4          554 BEL               21425          454
##  5           36 BEL               21916          501
##  6           36 BEL               21913          501
##  7         1586 BEL               21221         1113
##  8         1586 BEL               21330         1113
##  9          516 GRC               34020         1441
## 10          516 GRC               34211         1441
## # … with 17 more rows
…
## # A tibble: 1 x 2
##       n n_matched
##   <int>     <int>
## 1  1398      1331
 
# any CMP party in data matches to no PGV parties?
cmp_elc_ptys %>% 
    left_join(pty_links) %>% 
    group_by(country_iso3c, cmp_edate, cmp_party) %>% 
    filter(n_distinct(pgv_party_id, na.rm = TRUE) < 1)
 
## # A tibble: 67 x 7
## # Groups:   country_iso3c, cmp_edate, cmp_party [67]
##    country_iso3c cmp_edate  cmp_party cmp_partyname cmp_partyabbrev
##    <chr>         <date>         <dbl> <chr>         <chr>          
##  1 FIN           1991-03-17     14223 Left Wing Al… VAS            
##  2 FIN           1995-03-19     14223 Left Wing Al… VAS            
##  3 FIN           1999-03-21     14223 Left Wing Al… VAS            
##  4 FIN           2003-03-16     14223 Left Wing Al… VAS            
##  5 FIN           2007-03-18     14223 Left Wing Al… VAS            
##  6 FIN           2011-04-17     14223 Left Wing Al… VAS            
##  7 BEL           2007-06-10     21917 Flemish Inte… VB             
##  8 BEL           2010-06-13     21917 Flemish Inte… VB             
##  9 NLD           1982-09-08     22710 Centre Party  ""             
## 10 NLD           1994-05-03     22955 Union 55+     Unie 55+       
## # … with 57 more rows, and 2 more variables: ptf_party_id <int>,
## #   pgv_party_id <int>
 
# any CMP party in data matches to multiple PGV parties?
cmp_elc_ptys %>% 
    left_join(pty_links) %>% 
    group_by(country_iso3c, cmp_edate, cmp_party) %>% 
    filter(n_distinct(pgv_party_id, na.rm = TRUE) > 1)
 
## # A tibble: 52 x 7
## # Groups:   country_iso3c, cmp_edate, cmp_party [24]
##    country_iso3c cmp_edate  cmp_party cmp_partyname cmp_partyabbrev
##    <chr>         <date>         <dbl> <chr>         <chr>          
##  1 ITA           1983-06-26     32220 Italian Comm… PCI            
##  2 ITA           1983-06-26     32220 Italian Comm… PCI            
##  3 ITA           1987-06-14     32110 Green Federa… FdV            
##  4 ITA           1987-06-14     32110 Green Federa… FdV            
##  5 ITA           1987-06-14     32220 Italian Comm… PCI            
##  6 ITA           1987-06-14     32220 Italian Comm… PCI            
##  7 ITA           1992-04-06     32110 Green Federa… FdV            
##  8 ITA           1992-04-06     32110 Green Federa… FdV            
##  9 ITA           1992-04-06     32220 Democratic P… PDS            
## 10 ITA           1992-04-06     32220 Democratic P… PDS            
## # … with 42 more rows, and 2 more variables: ptf_party_id <int>,
## #   pgv_party_id <int>
…
